…
For each (airport, day) contruct a tidy data set of the airport’s
“performance” as the proportion of flights that departed less than an
hour late.

    left_join(flights,weather,by=c("time_hour","origin")) %>% 
      mutate(day_of_year = yday(time_hour)) %>% 
      group_by(origin, day_of_year) %>% 
      summarise(p = sum(dep_delay<60,na.rm = T),n=n()) %>% 
      mutate(performance = p/n)

    ## # A tibble: 1,095 x 5
    ## # Groups:   origin [3]
    ##    origin day_of_year     p     n performance
    ##    <chr>        <dbl> <int> <int>       <dbl>
    ##  1 EWR              1   279   305       0.915
    ##  2 EWR              2   288   350       0.823
    ##  3 EWR              3   326   336       0.970
    ##  4 EWR              4   315   339       0.929
    ##  5 EWR              5   229   238       0.962
    ##  6 EWR              6   285   301       0.947
    ##  7 EWR              7   315   342       0.921
    ##  8 EWR              8   326   334       0.976
    ##  9 EWR              9   327   336       0.973
    ## 10 EWR             10   336   344       0.977
    ## # ... with 1,085 more rows

Construct a tidy data set to that give weather summaries for each
(airport, day). Use the total precipitation, minimum visibility, maximum
wind\_gust, and average wind\_speed.

    weather %>% mutate(day_of_year = yday(time_hour)) %>% 
      group_by(origin,day_of_year) %>% 
      summarise(total_precip=sum(precip),min_visib=min(visib),avg_speed=mean(wind_speed))

    ## # A tibble: 1,092 x 5
    ## # Groups:   origin [3]
    ##    origin day_of_year total_precip min_visib avg_speed
    ##    <chr>        <dbl>        <dbl>     <dbl>     <dbl>
    ##  1 EWR              1            0        10     13.2 
    ##  2 EWR              2            0        10     10.9 
    ##  3 EWR              3            0        10      8.58
    ##  4 EWR              4            0        10     14.0 
    ##  5 EWR              5            0        10      9.40
    ##  6 EWR              6            0         6      9.11
    ##  7 EWR              7            0        10      7.34
    ##  8 EWR              8            0         8      7.19
    ##  9 EWR              9            0         6      5.99
    ## 10 EWR             10            0        10      8.92
    ## # ... with 1,082 more rows
…
